# Virtual Host configuration 

server {
    server_name api.code.decryptage.net; 

    return 301 https://$host$request_uri;

    listen [::]:443 ssl; # managed by Certbot
    listen 443 ssl; # managed by Certbot
    ssl_certificate /etc/letsencrypt/live/api.code.decryptage.net/fullchain.pem; # managed by Certbot
    ssl_certificate_key /etc/letsencrypt/live/api.code.decryptage.net/privkey.pem; # managed by Certbot
    include /etc/letsencrypt/options-ssl-nginx.conf; # managed by Certbot
    ssl_dhparam /etc/letsencrypt/ssl-dhparams.pem; # managed by Certbot

    return 404; # managed by Certbot

}

# HTTPS Redirection

server {
    if ($host = api.code.decryptage.net) {
        # return 301 https://$host$request_uri;
    } # managed by Certbot

	listen 80 ;
	listen [::]:80 ;
    server_name api.code.decryptage.net;
    return 404; # managed by Certbot

}